{
"CAPABILITIES":
	{
	"SUPPORTED":
		[
		        {	"CAPABILITY_NAME": "DEVINFO"},
		        {	"CAPABILITY_NAME": "DMACC"	},
		        {	"CAPABILITY_NAME": "FUMO"	},
		        {   "CAPABILITY_NAME": "LAWMO"	},
		        {   "CAPABILITY_NAME": "SCOMO"	}
		]
	}
}