{
  "MgmtTree": {
    "VerDTD": "1.2",
    "Node": {
      "DFProperties": {
        "AccessType": [
          "GET"
        ],
        "DFTitle": "This interior node acts as a placeholder for one or more instances of this object.",
        "DFType": {
          "DDFName": "urn:oma:mo:oma-dm-dmacc:1.2"
        }
      },
      "Node": [
        {
          "NodeName": "SrvID",
          "DFProperties": {
            "AccessType": [
              "GET"
            ],
            "DFTitle": ""
          }
        },
        {
          "NodeName": "SrvURI",
          "DFProperties": {
            "AccessType": [
              "GET"
            ],
            "DFTitle": ""
          }
        },
        {
          "NodeName": "Auth",
          "DFProperties": {
            "AccessType": [
              "GET"
            ],
            "DFTitle": ""
          },
          "Node": [
            {
              "NodeName": "Trsp",
              "DFProperties": {
                "AccessType": [
                  "GET"
                ],
                "DFTitle": ""
              },
              "Node": [
                {
                  "NodeName": "Data",
                  "DFProperties": {
                    "DFTitle": ""
                  }
                },
                {
                  "NodeName": "Secret",
                  "DFProperties": {
                    "DFTitle": "",
                    "DFType": {
                      "MIME": "text/plain"
                    }
                  }
                }
              ]
            }
          ]
        }
      ]
    }
  }
}