{
"Status":[
{
"sc":200
}
],
"ClientURI":"oma:mo:oma-dm-devinfo:1.0//",
"MOData":{
"DevInfo":{
"DevID":"7777",
"Man":"Cummins Inc.",
"Mod":"Engine Sensor",
"DmV":"1.0",
"Lang":"en",
"DevType":"headunit",
"OEM":"panasonic",
"FwV":"1.0.4",
"SwV":"1.0",
"HwV":""
}
}
}