{
   "Meta" : {
      "State" : {
         "Current_retry" : "0",
         "Current_state" : "10",
         "Max_retry" : "5"
      },
      "StateData" : {
         "FumoData" : {
            "DownloadedFileSize" : "",
            "TotalFirmwareSize" : ""
         }
      }
   }
}

