{
  "MgmtTree": {
    "VerDTD": "1.2",
    "Node": {
      "DFProperties": {
        "AccessType": [],
        "DFFormat": {},
        "Occurrence": {},
        "DFTitle": "This interior node groups together the parameters of a Software Component Management Object.",
        "DFType": {
          "DDFName": "urn:oma:mo:oma-scomo:1.1"
        }
      },
      "Node": [
        {
          "NodeName": "Download",
          "DFProperties": {
            "AccessType": [],
            "DFFormat": {},
            "Occurrence": {},
            "DFTitle": "This node is a parent node of the downloadable Delivery Packages that are ready for download or are in the process of downloading.",
            "DFType": {
              "DDFName": ""
            }
          },
          "pkg1": [
            {
              "DFProperties": {
                "AccessType": [],
                "DFFormat": {},
                "Occurrence": {},
                "DFTitle": "This node groups pre-delivery information and actions that are used for triggering the delivery and installation of Delivery Packages using the indirect delivery mechanism specified in section 7.1.2.",
                "DFType": {
                  "DDFName": ""
                }
              },
              "Node": [
                {
                  "NodeName": "PkgID",
                  "DFProperties": {
                    "AccessType": [],
                    "DFFormat": {},
                    "Occurrence": {},
                    "DFTitle": "This leaf node specifies the identifier for a Delivery Package.",
                    "DFType": {
                      "MIME": "text/plain"
                    }
                  }
                },
                {
                  "NodeName": "Name",
                   "DFProperties": {
                     "AccessType": [],
                     "DFFormat": {},
                     "Occurrence": {},
                     "DFTitle": "This leaf node specifies the Name for the Delivery Package.",
                     "DFType": {
                       "MIME": "text/plain"
                     }
                   }
                },
                {
                  "NodeName": "PkgURL",
                  "DFProperties": {
                    "AccessType": [],
                    "DFFormat": {},
                    "Occurrence": {},
                    "DFTitle": "This leaf node specifies the downloadable URL of the Delivery Package or its download descriptor.",
                    "DFType": {
                      "MIME": "text/plain"
                    }
                  }
                },
                {
                  "NodeName": "Reboot",
                  "DFProperties": {
                    "AccessType": [],
                    "DFFormat": {},
                    "Occurrence": {},
                    "DFTitle": "This leaf node is used with DownloadInstall or DownloadInstallInactive Primitives to specify when to reboot the device -- before and after installation.",
                    "DFType": {
                      "MIME": "text/plain"
                    }
                  }
                },
                {
                  "NodeName": "Status",
                  "DFProperties": {
                    "AccessType": [],
                    "DFFormat": {},
                    "Occurrence": {},
                    "DFTitle": "This leaf node specifies the Status of the Download and/or Install operation.",
                    "DFType": {
                      "MIME": "text/plain"
                    }
                  }
                },
                {
                  "NodeName": "PkgType",
                  "DFProperties": {
                    "AccessType": [],
                    "DFFormat": {},
                    "Occurrence": {},
                    "DFTitle": "This leaf node specifies the Content Type of a Delivery Package.",
                    "DFType": {
                      "MIME": "text/plain"
                    }
                  }
                },
                {
                  "NodeName": "Operations",
                  "DFProperties": {
                    "AccessType": [],
                    "DFFormat": {},
                    "Occurrence": {},
                    "DFTitle": "This node is a parent node for Primitives that can be executed to start a download of a Delivery Package into the Device and possibly its subsequent installation.",
                    "DFType": {
                      "DDFName": ""
                    }
                  },
                  "Node": [
                    {
                      "NodeName": "Download",
                      "DFProperties": {
                        "AccessType": [],
                        "DFFormat": {},
                        "Occurrence": {},
                        "DFTitle": "",
                        "DFType": {
                          "MIME": "text/plain"
                        }
                      }
                    },
                    {
                      "NodeName": "DownloadInstall",
                      "DFProperties": {
                        "AccessType": [],
                        "DFFormat": {},
                        "Occurrence": {},
                        "DFTitle": "",
                        "DFType": {
                          "MIME": "text/plain"
                        }
                      }
                    },
                    {
                      "NodeName": "DownloadInstallInactive",
                      "DFProperties": {
                        "AccessType": [],
                        "DFFormat": {},
                        "Occurrence": {},
                        "DFTitle": "",
                        "DFType": {
                          "MIME": "text/plain"
                        }
                      }
                    }
                  ]
                },
                {
                  "NodeName": "Ext",
                  "DFProperties": {
                    "AccessType": [],
                    "DFFormat": {},
                    "Occurrence": {},
                    "DFTitle": "This optional interior node designates a branch of the Download Delivery Package sub-tree into which platform or vendor extensions MAY be added, permanently or dynamically.",
                    "DFType": {
                      "DDFName": ""
                    }
                  }
                }
              ]
            }
          ],
          "pkg2": [
            {
              "DFProperties": {
                "AccessType": [],
                "DFFormat": {},
                "Occurrence": {},
                "DFTitle": "This node groups pre-delivery information and actions that are used for triggering the delivery and installation of Delivery Packages using the indirect delivery mechanism specified in section 7.1.2.",
                "DFType": {
                  "DDFName": ""
                }
              },
              "Node": [
                {
                  "NodeName": "PkgID",
                  "DFProperties": {
                    "AccessType": [],
                    "DFFormat": {},
                    "Occurrence": {},
                    "DFTitle": "This leaf node specifies the identifier for a Delivery Package.",
                    "DFType": {
                      "MIME": "text/plain"
                    }
                  }
                },
                {
                  "NodeName": "Name",
                   "DFProperties": {
                     "AccessType": [],
                     "DFFormat": {},
                     "Occurrence": {},
                     "DFTitle": "This leaf node specifies the Name for the Delivery Package.",
                     "DFType": {
                       "MIME": "text/plain"
                     }
                   }
                },
                {
                  "NodeName": "PkgURL",
                  "DFProperties": {
                    "AccessType": [],
                    "DFFormat": {},
                    "Occurrence": {},
                    "DFTitle": "This leaf node specifies the downloadable URL of the Delivery Package or its download descriptor.",
                    "DFType": {
                      "MIME": "text/plain"
                    }
                  }
                },
                {
                  "NodeName": "Reboot",
                  "DFProperties": {
                    "AccessType": [],
                    "DFFormat": {},
                    "Occurrence": {},
                    "DFTitle": "This leaf node is used with DownloadInstall or DownloadInstallInactive Primitives to specify when to reboot the device -- before and after installation.",
                    "DFType": {
                      "MIME": "text/plain"
                    }
                  }
                },
                {
                  "NodeName": "Status",
                  "DFProperties": {
                    "AccessType": [],
                    "DFFormat": {},
                    "Occurrence": {},
                    "DFTitle": "This leaf node specifies the Status of the Download and/or Install operation.",
                    "DFType": {
                      "MIME": "text/plain"
                    }
                  }
                },
                {
                  "NodeName": "PkgType",
                  "DFProperties": {
                    "AccessType": [],
                    "DFFormat": {},
                    "Occurrence": {},
                    "DFTitle": "This leaf node specifies the Content Type of a Delivery Package.",
                    "DFType": {
                      "MIME": "text/plain"
                    }
                  }
                },
                {
                  "NodeName": "Operations",
                  "DFProperties": {
                    "AccessType": [],
                    "DFFormat": {},
                    "Occurrence": {},
                    "DFTitle": "This node is a parent node for Primitives that can be executed to start a download of a Delivery Package into the Device and possibly its subsequent installation.",
                    "DFType": {
                      "DDFName": ""
                    }
                  },
                  "Node": [
                    {
                      "NodeName": "Download",
                      "DFProperties": {
                        "AccessType": [],
                        "DFFormat": {},
                        "Occurrence": {},
                        "DFTitle": "",
                        "DFType": {
                          "MIME": "text/plain"
                        }
                      }
                    },
                    {
                      "NodeName": "DownloadInstall",
                      "DFProperties": {
                        "AccessType": [],
                        "DFFormat": {},
                        "Occurrence": {},
                        "DFTitle": "",
                        "DFType": {
                          "MIME": "text/plain"
                        }
                      }
                    },
                    {
                      "NodeName": "DownloadInstallInactive",
                      "DFProperties": {
                        "AccessType": [],
                        "DFFormat": {},
                        "Occurrence": {},
                        "DFTitle": "",
                        "DFType": {
                          "MIME": "text/plain"
                        }
                      }
                    }
                  ]
                },
                {
                  "NodeName": "Ext",
                  "DFProperties": {
                    "AccessType": [],
                    "DFFormat": {},
                    "Occurrence": {},
                    "DFTitle": "This optional interior node designates a branch of the Download Delivery Package sub-tree into which platform or vendor extensions MAY be added, permanently or dynamically.",
                    "DFType": {
                      "DDFName": ""
                    }
                  }
                }
              ]
            }
          ]
        },
        {
          "NodeName": "Inventory",
          "DFProperties": {
            "AccessType": [],
            "DFFormat": {},
            "Occurrence": {},
            "DFTitle": "This node is a parent node for all of the Delivery Packages and Deployment Components in the Device.",
            "DFType": {
              "DDFName": ""
            }
          },
          "Node": [
            {
              "NodeName": "Delivered",
              "DFProperties": {
                "AccessType": [],
                "DFFormat": {},
                "Occurrence": {},
                "DFTitle": "This node is a parent node of the delivered Delivery Packages in the Device.",
                "DFType": {
                  "DDFName": " "
                }
              },
              "pkg1": [
                {
                  "DFProperties": {
                    "AccessType": [],
                    "DFFormat": {},
                    "Occurrence": {},
                    "DFTitle": "",
                    "DFType": {
                      "DDFName": ""
                    }
                  },
                  "Node": [
                    {
                      "NodeName": "PkgID",
                      "DFProperties": {
                        "AccessType": [],
                        "DFFormat": {},
                        "Occurrence": {},
                        "DFTitle": "",
                        "DFType": {
                          "MIME": "text/plain"
                        }
                      }
                    },
                    {
                      "NodeName": "Name",
                       "DFProperties": {
                         "AccessType": [],
                         "DFFormat": {},
                         "Occurrence": {},
                         "DFTitle": "This leaf node specifies the Name for the Delivery Package.",
                         "DFType": {
                           "MIME": "text/plain"
                        }
                      }
                    },
                    {
                      "NodeName": "PkgType",
                      "DFProperties": {
                        "AccessType": [],
                        "DFFormat": {},
                        "Occurrence": {},
                        "DFTitle": "This leaf node specifies the Content Type of a Delivery Package in the Device.",
                        "DFType": {
                          "MIME": "text/plain"
                        }
                      }
                    },
                    {
                      "NodeName": "MetaData",
                      "DFProperties": {
                        "AccessType": [],
                        "DFFormat": {},
                        "Occurrence": {},
                        "DFTitle": "This interior node specifies Metadata for the Delivered Package, providing information such as license, manufacturer, copyright, etc.",
                        "DFType": {
                          "DDFName": ""
                        }
                      }
                    },
                    {
                      "NodeName": "Status",
                      "DFProperties": {
                        "AccessType": [],
                        "DFFormat": {},
                        "Occurrence": {},
                        "DFTitle": "This leaf node specifies the status of Remove or Install Primitive.",
                        "DFType": {
                          "MIME": "text/plain"
                        }
                      }
                    },
                    {
                      "NodeName": "State",
                      "DFProperties": {
                        "AccessType": [],
                        "DFFormat": {},
                        "Occurrence": {},
                        "DFTitle": "This leaf node specifies the state of a Delivery Package in the Device.",
                        "DFType": {
                          "MIME": "text/plain"
                        }
                      }
                    },
                    {
                      "NodeName": "Operations",
                      "DFProperties": {
                        "AccessType": [],
                        "DFFormat": {},
                        "Occurrence": {},
                        "DFTitle": "This node is a parent node for Primitives that can be executed for Delivery Package in the Device.",
                        "DFType": {
                          "DDFName": ""
                        }
                      },
                      "Node": [
                        {
                          "NodeName": "Install",
                          "DFProperties": {
                            "AccessType": [],
                            "DFFormat": {},
                            "Occurrence": {},
                            "DFTitle": "This node is used with the Exec command to start the Install operation.",
                            "DFType": {
                              "MIME": "text/plain"
                            }
                          }
                        },
                        {
                          "NodeName": "InstallInactive",
                          "DFProperties": {
                            "AccessType": [],
                            "DFFormat": {},
                            "Occurrence": {},
                            "DFTitle": "This node is used with the Exec command to start the InstallInactive operation.",
                            "DFType": {
                              "MIME": "text/plain"
                            }
                          }
                        },
                        {
                          "NodeName": "Remove",
                          "DFProperties": {
                            "AccessType": [],
                            "DFFormat": {},
                            "Occurrence": {},
                            "DFTitle": "This node is used with the Exec command to start the Remove operation to remove the Delivery Package from the Device.",
                            "DFType": {
                              "MIME": "text/plain"
                            }
                          }
                        }
                      ]
                    }
                  ]
                }
              ],
              "pkg2": [
                {
                  "DFProperties": {
                    "AccessType": [],
                    "DFFormat": {},
                    "Occurrence": {},
                    "DFTitle": "",
                    "DFType": {
                      "DDFName": ""
                    }
                  },
                  "Node": [
                    {
                      "NodeName": "PkgID",
                      "DFProperties": {
                        "AccessType": [],
                        "DFFormat": {},
                        "Occurrence": {},
                        "DFTitle": "",
                        "DFType": {
                          "MIME": "text/plain"
                        }
                      }
                    },
                    {
                      "NodeName": "Name",
                       "DFProperties": {
                         "AccessType": [],
                         "DFFormat": {},
                         "Occurrence": {},
                         "DFTitle": "This leaf node specifies the Name for the Delivery Package.",
                         "DFType": {
                           "MIME": "text/plain"
                        }
                      }
                    },
                    {
                      "NodeName": "PkgType",
                      "DFProperties": {
                        "AccessType": [],
                        "DFFormat": {},
                        "Occurrence": {},
                        "DFTitle": "This leaf node specifies the Content Type of a Delivery Package in the Device.",
                        "DFType": {
                          "MIME": "text/plain"
                        }
                      }
                    },
                    {
                      "NodeName": "MetaData",
                      "DFProperties": {
                        "AccessType": [],
                        "DFFormat": {},
                        "Occurrence": {},
                        "DFTitle": "This interior node specifies Metadata for the Delivered Package, providing information such as license, manufacturer, copyright, etc.",
                        "DFType": {
                          "DDFName": ""
                        }
                      }
                    },
                    {
                      "NodeName": "Status",
                      "DFProperties": {
                        "AccessType": [],
                        "DFFormat": {},
                        "Occurrence": {},
                        "DFTitle": "This leaf node specifies the status of Remove or Install Primitive.",
                        "DFType": {
                          "MIME": "text/plain"
                        }
                      }
                    },
                    {
                      "NodeName": "State",
                      "DFProperties": {
                        "AccessType": [],
                        "DFFormat": {},
                        "Occurrence": {},
                        "DFTitle": "This leaf node specifies the state of a Delivery Package in the Device.",
                        "DFType": {
                          "MIME": "text/plain"
                        }
                      }
                    },
                    {
                      "NodeName": "Operations",
                      "DFProperties": {
                        "AccessType": [],
                        "DFFormat": {},
                        "Occurrence": {},
                        "DFTitle": "This node is a parent node for Primitives that can be executed for Delivery Package in the Device.",
                        "DFType": {
                          "DDFName": ""
                        }
                      },
                      "Node": [
                        {
                          "NodeName": "Install",
                          "DFProperties": {
                            "AccessType": [],
                            "DFFormat": {},
                            "Occurrence": {},
                            "DFTitle": "This node is used with the Exec command to start the Install operation.",
                            "DFType": {
                              "MIME": "text/plain"
                            }
                          }
                        },
                        {
                          "NodeName": "InstallInactive",
                          "DFProperties": {
                            "AccessType": [],
                            "DFFormat": {},
                            "Occurrence": {},
                            "DFTitle": "This node is used with the Exec command to start the InstallInactive operation.",
                            "DFType": {
                              "MIME": "text/plain"
                            }
                          }
                        },
                        {
                          "NodeName": "Remove",
                          "DFProperties": {
                            "AccessType": [],
                            "DFFormat": {},
                            "Occurrence": {},
                            "DFTitle": "This node is used with the Exec command to start the Remove operation to remove the Delivery Package from the Device.",
                            "DFType": {
                              "MIME": "text/plain"
                            }
                          }
                        }
                      ]
                    }
                  ]
                }
              ]
            },
            {
              "NodeName": "Deployed",
              "DFProperties": {
                "AccessType": [],
                "DFFormat": {},
                "Occurrence": {},
                "DFTitle": "This node is a parent node of the Deployment Components in the Device.",
                "DFType": {
                  "DDFName": "  "
                }
              },
              "pkg1": [
                {
                  "NodeName": "CheckUpdateAlertType",
                  "DFProperties": {
                    "AccessType": [],
                    "DFFormat": {},
                    "Occurrence": {},
                    "DFTitle": "This leaf node specifies the Alert Type of client-initiated check for new version of the Deployed Components.",
                    "DFType": {
                      "MIME": "text/plain"
                    }
                  }
                },
                {
                  "DFProperties": {
                    "AccessType": [],
                    "DFFormat": {},
                    "Occurrence": {},
                    "DFTitle": "This node acts as a placeholder for a Deployment Component in the Device.",
                    "DFType": {
                      "DDFName": ""
                    }
                  },
                  "Node": [
                    {
                      "NodeName": "ID",
                      "DFProperties": {
                        "AccessType": [],
                        "DFFormat": {},
                        "Occurrence": {},
                        "DFTitle": "This leaf node specifies the identifier of a deployed Deployment Component in the Device.",
                        "DFType": {
                          "MIME": "text/plain"
                        }
                      }
                    },
                    {
                      "NodeName": "PkgIDRef",
                      "DFProperties": {
                        "AccessType": [],
                        "DFFormat": {},
                        "Occurrence": {},
                        "DFTitle": "This leaf node provides the reference to the Delivery Package ID as specified in Download and/or Delivered tree in the Device.",
                        "DFType": {
                          "MIME": "text/plain"
                        }
                      }
                    },
                    {
                      "NodeName": "Name",
                       "DFProperties": {
                         "AccessType": [],
                         "DFFormat": {},
                         "Occurrence": {},
                         "DFTitle": "This leaf node specifies the Name for the Delivery Package.",
                         "DFType": {
                           "MIME": "text/plain"
                        }
                      }
                    },
                    {
                      "NodeName": "Version",
                      "DFProperties": {
                        "AccessType": [],
                        "DFFormat": {},
                        "Occurrence": {},
                        "DFTitle": "This leaf node specifies the Version of a Deployment Component in the Device.",
                        "DFType": {
                          "MIME": "text/plain"
                        }
                      }
                    },
                    {
                      "NodeName": "AvailableVersion",
                      "DFProperties": {
                        "AccessType": [],
                        "DFFormat": {},
                        "Occurrence": {},
                        "DFTitle": "This leaf node specifies the available version of the Deployment Component in the Server when device- or user-initiated check for new version of the Deployment component is completed.",
                        "DFType": {
                          "MIME": "text/plain"
                        }
                      }
                    },
                    {
                      "NodeName": "MetaData",
                      "DFProperties": {
                        "AccessType": [],
                        "DFFormat": {},
                        "Occurrence": {},
                        "DFTitle": "This interior node specifies the metadata on the Deployed Component, providing information such as date and time of creation, manufacturer, creator of the software, copyright, etc.",
                        "DFType": {
                          "DDFName": ""
                        }
                      }
                    },
                    {
                      "NodeName": "State",
                      "DFProperties": {
                        "AccessType": [],
                        "DFFormat": {},
                        "Occurrence": {},
                        "DFTitle": "This leaf node specifies the State of a Deployment Component in the Device.",
                        "DFType": {
                          "MIME": "text/plain"
                        }
                      }
                    },
                    {
                      "NodeName": "Status",
                      "DFProperties": {
                        "AccessType": [],
                        "DFFormat": {},
                        "Occurrence": {},
                        "DFTitle": "This leaf node specifies the Status of Remove, Activate, and Deactivate Primitives.",
                        "DFType": {
                          "MIME": "text/plain"
                        }
                      }
                    },
                    {
                      "NodeName": "Size",
                      "DFProperties": {
                        "AccessType": [],
                        "DFFormat": {},
                        "Occurrence": {},
                        "DFTitle": "This leaf node specifies the actual installed size of the Software Components installed.",
                        "DFType": {
                          "MIME": "text/plain"
                        }
                      }
                    },
                    {
                      "NodeName": "ComponentType",
                      "DFProperties": {
                        "AccessType": [],
                        "DFFormat": {},
                        "Occurrence": {},
                        "DFTitle": "This leaf node specifies the Content Type of a deployed Software Component in the Device.",
                        "DFType": {
                          "MIME": "text/plain"
                        }
                      }
                    },
                    {
                      "NodeName": "Operations",
                      "DFProperties": {
                        "AccessType": [],
                        "DFFormat": {},
                        "Occurrence": {},
                        "DFTitle": "This node is a parent node for Primitives that can be executed for a Deployment Component in the Device.",
                        "DFType": {
                          "DDFName": " "
                        }
                      },
                      "Node": [
                        {
                          "NodeName": "Activate",
                          "DFProperties": {
                            "AccessType": [],
                            "DFFormat": {},
                            "Occurrence": {},
                            "DFTitle": "This node is used with the Exec command to start the Activate operation to transfer the Deployment Component from the Inactive state to the Active state.",
                            "DFType": {
                              "MIME": "text/plain"
                            }
                          }
                        },
                        {
                          "NodeName": "Deactivate",
                          "DFProperties": {
                            "AccessType": [],
                            "DFFormat": {},
                            "Occurrence": {},
                            "DFTitle": "This node is used with the Exec command to start the Deactivate operation  to transfer the Deployment Component from the Active state to the Inactive state.",
                            "DFType": {
                              "MIME": "text/plain"
                            }
                          }
                        },
                        {
                          "NodeName": "Remove",
                          "DFProperties": {
                            "AccessType": [],
                            "DFFormat": {},
                            "Occurrence": {},
                            "DFTitle": "This node is used with the Exec command to start the Remove operation to Remove the Deployment Component from the Device.",
                            "DFType": {
                              "MIME": "text/plain"
                            }
                          }
                        },
                        {
                          "NodeName": "Blacklist",
                          "DFProperties": {
                            "AccessType": [],
                            "DFFormat": {},
                            "Occurrence": {},
                            "DFTitle": "This node is used with the Exec command to start the Blacklist operation.",
                            "DFType": {
                              "MIME": "text/plain"
                            }
                          }
                        },
                        {
                          "NodeName": "Whitelist",
                          "DFProperties": {
                            "AccessType": [],
                            "DFFormat": {},
                            "Occurrence": {},
                            "DFTitle": "This node is used with the Exec command to start the Whitelist operation.",
                            "DFType": {
                              "MIME": "text/plain"
                            }
                          }
                        }
                      ]
                    },
                    {
                      "NodeName": "MOReferences",
                      "DFProperties": {
                        "AccessType": [],
                        "DFFormat": {},
                        "Occurrence": {},
                        "DFTitle": "This node is a parent node to the MO references for this deployed Software Component.",
                        "DFType": {
                          "DDFName": "  "
                        }
                      },
                      "Node": {
                        "DFProperties": {
                          "AccessType": [],
                          "DFFormat": {},
                          "Occurrence": {},
                          "DFTitle": " This node is a placeholder for one instance of a MO reference.",
                          "DFType": {
                            "DDFName": ""
                          }
                        },
                        "Node": [
                          {
                            "NodeName": "MOID",
                            "DFProperties": {
                              "AccessType": [],
                              "DFFormat": {},
                              "Occurrence": {},
                              "DFTitle": "",
                              "DFType": {
                                "MIME": "text/plain"
                              }
                            }
                          },
                          {
                            "NodeName": "MOLocation",
                            "DFProperties": {
                              "AccessType": [],
                              "DFFormat": {},
                              "Occurrence": {},
                              "DFTitle": "The value of this leaf node specifies the location of the root node of the corresponding MO in the form of Uniform Resource Identifier (URI).",
                              "DFType": {
                                "MIME": "text/plain"
                              }
                            }
                          }
                        ]
                      }
                    }
                  ]
                }
              ],
              "pkg2": [
                {
                  "NodeName": "CheckUpdateAlertType",
                  "DFProperties": {
                    "AccessType": [],
                    "DFFormat": {},
                    "Occurrence": {},
                    "DFTitle": "This leaf node specifies the Alert Type of client-initiated check for new version of the Deployed Components.",
                    "DFType": {
                      "MIME": "text/plain"
                    }
                  }
                },
                {
                  "DFProperties": {
                    "AccessType": [],
                    "DFFormat": {},
                    "Occurrence": {},
                    "DFTitle": "This node acts as a placeholder for a Deployment Component in the Device.",
                    "DFType": {
                      "DDFName": ""
                    }
                  },
                  "Node": [
                    {
                      "NodeName": "ID",
                      "DFProperties": {
                        "AccessType": [],
                        "DFFormat": {},
                        "Occurrence": {},
                        "DFTitle": "This leaf node specifies the identifier of a deployed Deployment Component in the Device.",
                        "DFType": {
                          "MIME": "text/plain"
                        }
                      }
                    },
                    {
                      "NodeName": "PkgIDRef",
                      "DFProperties": {
                        "AccessType": [],
                        "DFFormat": {},
                        "Occurrence": {},
                        "DFTitle": "This leaf node provides the reference to the Delivery Package ID as specified in Download and/or Delivered tree in the Device.",
                        "DFType": {
                          "MIME": "text/plain"
                        }
                      }
                    },
                    {
                      "NodeName": "Name",
                       "DFProperties": {
                         "AccessType": [],
                         "DFFormat": {},
                         "Occurrence": {},
                         "DFTitle": "This leaf node specifies the Name for the Delivery Package.",
                         "DFType": {
                           "MIME": "text/plain"
                        }
                      }
                    },
                    {
                      "NodeName": "Version",
                      "DFProperties": {
                        "AccessType": [],
                        "DFFormat": {},
                        "Occurrence": {},
                        "DFTitle": "This leaf node specifies the Version of a Deployment Component in the Device.",
                        "DFType": {
                          "MIME": "text/plain"
                        }
                      }
                    },
                    {
                      "NodeName": "AvailableVersion",
                      "DFProperties": {
                        "AccessType": [],
                        "DFFormat": {},
                        "Occurrence": {},
                        "DFTitle": "This leaf node specifies the available version of the Deployment Component in the Server when device- or user-initiated check for new version of the Deployment component is completed.",
                        "DFType": {
                          "MIME": "text/plain"
                        }
                      }
                    },
                    {
                      "NodeName": "MetaData",
                      "DFProperties": {
                        "AccessType": [],
                        "DFFormat": {},
                        "Occurrence": {},
                        "DFTitle": "This interior node specifies the metadata on the Deployed Component, providing information such as date and time of creation, manufacturer, creator of the software, copyright, etc.",
                        "DFType": {
                          "DDFName": ""
                        }
                      }
                    },
                    {
                      "NodeName": "State",
                      "DFProperties": {
                        "AccessType": [],
                        "DFFormat": {},
                        "Occurrence": {},
                        "DFTitle": "This leaf node specifies the State of a Deployment Component in the Device.",
                        "DFType": {
                          "MIME": "text/plain"
                        }
                      }
                    },
                    {
                      "NodeName": "Status",
                      "DFProperties": {
                        "AccessType": [],
                        "DFFormat": {},
                        "Occurrence": {},
                        "DFTitle": "This leaf node specifies the Status of Remove, Activate, and Deactivate Primitives.",
                        "DFType": {
                          "MIME": "text/plain"
                        }
                      }
                    },
                    {
                      "NodeName": "Size",
                      "DFProperties": {
                        "AccessType": [],
                        "DFFormat": {},
                        "Occurrence": {},
                        "DFTitle": "This leaf node specifies the actual installed size of the Software Components installed.",
                        "DFType": {
                          "MIME": "text/plain"
                        }
                      }
                    },
                    {
                      "NodeName": "ComponentType",
                      "DFProperties": {
                        "AccessType": [],
                        "DFFormat": {},
                        "Occurrence": {},
                        "DFTitle": "This leaf node specifies the Content Type of a deployed Software Component in the Device.",
                        "DFType": {
                          "MIME": "text/plain"
                        }
                      }
                    },
                    {
                      "NodeName": "Operations",
                      "DFProperties": {
                        "AccessType": [],
                        "DFFormat": {},
                        "Occurrence": {},
                        "DFTitle": "This node is a parent node for Primitives that can be executed for a Deployment Component in the Device.",
                        "DFType": {
                          "DDFName": " "
                        }
                      },
                      "Node": [
                        {
                          "NodeName": "Activate",
                          "DFProperties": {
                            "AccessType": [],
                            "DFFormat": {},
                            "Occurrence": {},
                            "DFTitle": "This node is used with the Exec command to start the Activate operation to transfer the Deployment Component from the Inactive state to the Active state.",
                            "DFType": {
                              "MIME": "text/plain"
                            }
                          }
                        },
                        {
                          "NodeName": "Deactivate",
                          "DFProperties": {
                            "AccessType": [],
                            "DFFormat": {},
                            "Occurrence": {},
                            "DFTitle": "This node is used with the Exec command to start the Deactivate operation  to transfer the Deployment Component from the Active state to the Inactive state.",
                            "DFType": {
                              "MIME": "text/plain"
                            }
                          }
                        },
                        {
                          "NodeName": "Remove",
                          "DFProperties": {
                            "AccessType": [],
                            "DFFormat": {},
                            "Occurrence": {},
                            "DFTitle": "This node is used with the Exec command to start the Remove operation to Remove the Deployment Component from the Device.",
                            "DFType": {
                              "MIME": "text/plain"
                            }
                          }
                        },
                        {
                          "NodeName": "Blacklist",
                          "DFProperties": {
                            "AccessType": [],
                            "DFFormat": {},
                            "Occurrence": {},
                            "DFTitle": "This node is used with the Exec command to start the Blacklist operation.",
                            "DFType": {
                              "MIME": "text/plain"
                            }
                          }
                        },
                        {
                          "NodeName": "Whitelist",
                          "DFProperties": {
                            "AccessType": [],
                            "DFFormat": {},
                            "Occurrence": {},
                            "DFTitle": "This node is used with the Exec command to start the Whitelist operation.",
                            "DFType": {
                              "MIME": "text/plain"
                            }
                          }
                        }
                      ]
                    },
                    {
                      "NodeName": "MOReferences",
                      "DFProperties": {
                        "AccessType": [],
                        "DFFormat": {},
                        "Occurrence": {},
                        "DFTitle": "This node is a parent node to the MO references for this deployed Software Component.",
                        "DFType": {
                          "DDFName": "  "
                        }
                      },
                      "Node": {
                        "DFProperties": {
                          "AccessType": [],
                          "DFFormat": {},
                          "Occurrence": {},
                          "DFTitle": " This node is a placeholder for one instance of a MO reference.",
                          "DFType": {
                            "DDFName": ""
                          }
                        },
                        "Node": [
                          {
                            "NodeName": "MOID",
                            "DFProperties": {
                              "AccessType": [],
                              "DFFormat": {},
                              "Occurrence": {},
                              "DFTitle": "",
                              "DFType": {
                                "MIME": "text/plain"
                              }
                            }
                          },
                          {
                            "NodeName": "MOLocation",
                            "DFProperties": {
                              "AccessType": [],
                              "DFFormat": {},
                              "Occurrence": {},
                              "DFTitle": "The value of this leaf node specifies the location of the root node of the corresponding MO in the form of Uniform Resource Identifier (URI).",
                              "DFType": {
                                "MIME": "text/plain"
                              }
                            }
                          }
                        ]
                      }
                    }
                  ]
                }
              ]
            },
            {
              "NodeName": "CheckUpdateFreq",
              "DFProperties": {
                "AccessType": [],
                "DFFormat": {},
                "Occurrence": {},
                "DFTitle": "This leaf node specifies the frequency (numbered by days) of client-initiated check for new version of the Deployed Components.",
                "DFType": {
                  "MIME": "text/plain"
                }
              }
            }
          ]
        },
        {
          "NodeName": "Ext",
          "DFProperties": {
            "AccessType": [],
            "DFFormat": {},
            "Occurrence": {},
            "DFTitle": "This interior node is for vendor-specific extensions to store the device related information.",
            "DFType": {
              "DDFName": " "
            },
            "Node": [
              {
                "NodeName": "ModificationDate",
                "DFProperties": {
                  "AccessType": {
                    "Type": "GET"
                  },
                  "DFTitle": "95134",
                  "DFType": {
                    "MIME": "date"
                  }
                }
              }
            ]
          }
        }
      ]
    }
  }
}